DS421 Replication - Missirian & Schlenker (2017)
…
summary <- summary %>%
  mutate(app_range = max_log_app - min_log_app, temp_range = max_temp - min_temp)
summary

## # A tibble: 110 x 9
##    originCountryNa min_log_app mean_log_app max_log_app min_temp mean_temp
##    <chr>                  <dbl>        <dbl>       <dbl>    <dbl>     <dbl>
##  1 Afghanistan             8.91         9.87       10.9      19.0      20.3
##  2 Albania                 7.10         8.17       10.0      19.7      20.7
##  3 Algeria                 8.15         8.73        9.31     18.8      19.8
##  4 Angola                  6.96         7.83        8.95     21.2      22.2
##  5 Armenia                 8.46         8.81        9.00     16.0      17.6
##  6 Azerbaijan              7.58         8.08        8.46     21.0      22.1
##  7 Bangladesh              8.64         9.01        9.65     27.9      28.5
##  8 Belarus                 6.86         7.42        8.02     13.5      14.4
##  9 Benin                   4.58         5.38        6.26     26.8      27.2
## 10 Bhutan                  3.95         4.64        5.40     19.5      20.1
## #  with 100 more rows, and 3 more variables: max_temp <dbl>,
## #   app_range <dbl>, temp_range <dbl>
…
summary2 <- summary2 %>%
  mutate(norm_range = max_log_app/population - min_log_app/population)
summary2

## # A tibble: 103 x 9
##    originCountryNa min_log_app mean_log_app max_log_app min_temp mean_temp
##    <chr>                  <dbl>        <dbl>       <dbl>    <dbl>     <dbl>
##  1 Afghanistan             8.91         9.87       10.9      19.0      20.3
##  2 Albania                 7.10         8.17       10.0      19.7      20.7
##  3 Algeria                 8.15         8.73        9.31     18.8      19.8
##  4 Angola                  6.96         7.83        8.95     21.2      22.2
##  5 Armenia                 8.46         8.81        9.00     16.0      17.6
##  6 Azerbaijan              7.58         8.08        8.46     21.0      22.1
##  7 Bangladesh              8.64         9.01        9.65     27.9      28.5
##  8 Belarus                 6.86         7.42        8.02     13.5      14.4
##  9 Benin                   4.58         5.38        6.26     26.8      27.2
## 10 Bhutan                  3.95         4.64        5.40     19.5      20.1
## #  with 93 more rows, and 3 more variables: max_temp <dbl>,
## #   population <dbl>, norm_range <dbl>
…
